{
    "promotion":[
        
        {
            "id": 1,
            "image": "asset/images/promo1.png"
        },
        {
            "id": 2,
            "image": "asset/images/promo2.png"
        },
        {
            "id": 3,
            "image": "asset/images/promo3.png"
        }
        
    ]


}